0.0100000000,21.0345321413,0.2483460426,0.2610865297
0.0200000000,15.3315691194,0.4188054169,0.2308310028
0.0300000000,12.8651287405,0.6015321928,0.2054476432
0.0400000000,11.3851941960,0.7944163786,0.1850047440
0.0500000000,10.3454409182,0.9871951655,0.1700987918
0.0600000000,9.5347313269,1.1672830528,0.1600890023
0.0700000000,8.8604820099,1.3245825160,0.1542600394
0.0800000000,8.2586509881,1.4498304701,0.1506657672
0.0810000000,8.2013303613,1.4604601163,0.1504123407
0.0820000000,8.1466159458,1.4710674565,0.1502672118
0.0830000000,8.0936890182,1.4815344931,0.1502340740
0.0840000000,8.0393270482,1.4913737210,0.1501252674
0.0850000000,7.9866160407,1.5010607698,0.1500646840
0.0860000000,7.9364183496,1.5107612733,0.1501831305
0.0870000000,7.8821559864,1.5193758826,0.1500324918
0.0880000000,7.8317016491,1.5282156922,0.1500593774
0.0900000000,7.7347805385,1.5454420711,0.1504018036
0.1000000000,7.2568437902,1.6094773819,0.1518089562
0.1010000000,7.2135142602,1.6147072491,0.1522077373
0.1020000000,7.1694378444,1.6194329025,0.1525226723
0.1030000000,7.1219767305,1.6231153706,0.1525359563
0.1040000000,7.0804860520,1.6276533184,0.1530384944
0.1050000000,7.0363411249,1.6313145464,0.1533103462
0.1060000000,6.9930734688,1.6348203088,0.1536403031
0.1070000000,6.9513040161,1.6383021364,0.1540283171
0.1080000000,6.9082716390,1.6411961299,0.1543281032
0.1090000000,6.8660911313,1.6439485525,0.1546870919
0.1100000000,6.8279833248,1.6472391153,0.1552552473
0.1110000000,6.7850051888,1.6491707119,0.1555864640
0.1120000000,6.7459263774,1.6516420479,0.1560506024
0.1130000000,6.7075915721,1.6539916630,0.1566566018
0.1140000000,6.6678234950,1.6557116912,0.1570933343
0.1150000000,6.6246641629,1.6563747772,0.1572801714
0.1160000000,6.5861480401,1.6577768504,0.1578424727
0.1170000000,6.5474782706,1.6588661424,0.1583090643
0.1180000000,6.5092224253,1.6597671118,0.1588407588
0.1190000000,6.4727254155,1.6607870903,0.1594363490
0.1200000000,6.4350930124,1.6612833555,0.1600193019
0.1210000000,6.3991106562,1.6618989787,0.1606676613
0.1220000000,6.3633932648,1.6623226340,0.1613008962
0.1230000000,6.3273147806,1.6624005881,0.1619199112
0.1240000000,6.2908589601,1.6621275315,0.1624383437
0.1250000000,6.2546126362,1.6616533898,0.1630256222
0.1260000000,6.2198554391,1.6613017995,0.1636804424
0.1270000000,6.1836369648,1.6603415619,0.1642348155
0.1280000000,6.1484521415,1.6594010182,0.1648580050
0.1290000000,6.1124022776,1.6580182674,0.1653769468
0.1300000000,6.0796154720,1.6572046550,0.1661404825
0.1310000000,6.0438457870,1.6554406940,0.1666231634
0.1320000000,6.0105912983,1.6540697389,0.1673550995
0.1330000000,5.9803081640,1.6532318600,0.1683410527
0.1340000000,5.9425127052,1.6503367842,0.1685878690
0.1350000000,5.9109265057,1.6487284141,0.1693594307
0.1360000000,5.8816122611,1.6475069147,0.1703926502
0.1370000000,5.8452157416,1.6443622487,0.1707631471
0.1380000000,5.8182711188,1.6433173678,0.1719535938
0.1390000000,5.7857185627,1.6407053752,0.1725665889
0.1400000000,5.7941756012,1.6500916340,0.1771492779
0.1500000000,5.4909938806,1.6176083101,0.1850258794
0.1600000000,5.2244247189,1.5811144735,0.1949957678
0.1700000000,4.9472473741,1.5284688809,0.2017988832
0.1800000000,4.7707202508,1.4973653374,0.2190864430
0.2000000000,4.4025325901,1.4087979645,0.2482861964
0.2500000000,3.6392198078,1.1630559685,0.3190406976
0.3000000000,3.3356517604,1.0204311763,0.4536613083
0.3500000000,3.0423778932,0.8767869594,0.5679909214
0.4000000000,3.1476680874,0.8424521054,0.7768122875
0.4500000000,3.3015025011,0.8373796073,0.9780440408
0.5000000000,3.4566522202,0.8227323280,1.1573826961
0.5500000000,3.4223083098,0.7836234353,1.2628920224
